-- Merging decision tree log ---
manifest
ADDED from /Users/meyvisal/.pub-cache/hosted/pub.dev/flutter_app_badger-1.5.0/android/src/main/AndroidManifest.xml:1:1-3:12
INJECTED from /Users/meyvisal/.pub-cache/hosted/pub.dev/flutter_app_badger-1.5.0/android/src/main/AndroidManifest.xml:1:1-3:12
INJECTED from /Users/meyvisal/.pub-cache/hosted/pub.dev/flutter_app_badger-1.5.0/android/src/main/AndroidManifest.xml:1:1-3:12
	package
		ADDED from /Users/meyvisal/.pub-cache/hosted/pub.dev/flutter_app_badger-1.5.0/android/src/main/AndroidManifest.xml:2:3-54
		INJECTED from /Users/meyvisal/.pub-cache/hosted/pub.dev/flutter_app_badger-1.5.0/android/src/main/AndroidManifest.xml
		INJECTED from /Users/meyvisal/.pub-cache/hosted/pub.dev/flutter_app_badger-1.5.0/android/src/main/AndroidManifest.xml
	xmlns:android
		ADDED from /Users/meyvisal/.pub-cache/hosted/pub.dev/flutter_app_badger-1.5.0/android/src/main/AndroidManifest.xml:1:11-69
uses-sdk
INJECTED from /Users/meyvisal/.pub-cache/hosted/pub.dev/flutter_app_badger-1.5.0/android/src/main/AndroidManifest.xml reason: use-sdk injection requested
INJECTED from /Users/meyvisal/.pub-cache/hosted/pub.dev/flutter_app_badger-1.5.0/android/src/main/AndroidManifest.xml
INJECTED from /Users/meyvisal/.pub-cache/hosted/pub.dev/flutter_app_badger-1.5.0/android/src/main/AndroidManifest.xml
INJECTED from /Users/meyvisal/.pub-cache/hosted/pub.dev/flutter_app_badger-1.5.0/android/src/main/AndroidManifest.xml
INJECTED from /Users/meyvisal/.pub-cache/hosted/pub.dev/flutter_app_badger-1.5.0/android/src/main/AndroidManifest.xml
	android:targetSdkVersion
		INJECTED from /Users/meyvisal/.pub-cache/hosted/pub.dev/flutter_app_badger-1.5.0/android/src/main/AndroidManifest.xml
		ADDED from /Users/meyvisal/.pub-cache/hosted/pub.dev/flutter_app_badger-1.5.0/android/src/main/AndroidManifest.xml
		INJECTED from /Users/meyvisal/.pub-cache/hosted/pub.dev/flutter_app_badger-1.5.0/android/src/main/AndroidManifest.xml
	android:minSdkVersion
		INJECTED from /Users/meyvisal/.pub-cache/hosted/pub.dev/flutter_app_badger-1.5.0/android/src/main/AndroidManifest.xml
		ADDED from /Users/meyvisal/.pub-cache/hosted/pub.dev/flutter_app_badger-1.5.0/android/src/main/AndroidManifest.xml
		INJECTED from /Users/meyvisal/.pub-cache/hosted/pub.dev/flutter_app_badger-1.5.0/android/src/main/AndroidManifest.xml
